<svg
  xmlns="http://www.w3.org/2000/svg"
  width="27px" height="27px" viewBox="0 0 27 27">

  <path d="M 18.035156 6.933594 C 18.367188 6.933594 18.640625 6.660156 18.640625 6.328125 L 18.640625 4.21875 C 18.640625 2.140625 16.949219 0.449219 14.871094 0.449219 L 4.273438 0.449219 C 2.195312 0.449219 0.5 2.140625 0.5 4.21875 L 0.5 22.78125 C 0.5 24.859375 2.195312 26.550781 4.273438 26.550781 L 14.871094 26.550781 C 16.949219 26.550781 18.640625 24.859375 18.640625 22.78125 L 18.640625 20.671875 C 18.640625 20.339844 18.367188 20.066406 18.035156 20.066406 C 17.703125 20.066406 17.429688 20.339844 17.429688 20.671875 L 17.429688 22.78125 C 17.429688 24.1875 16.277344 25.339844 14.871094 25.339844 L 4.273438 25.339844 C 2.863281 25.339844 1.714844 24.1875 1.714844 22.78125 L 1.714844 4.21875 C 1.714844 2.8125 2.863281 1.660156 4.273438 1.660156 L 14.871094 1.660156 C 16.277344 1.660156 17.429688 2.8125 17.429688 4.21875 L 17.429688 6.328125 C 17.429688 6.660156 17.703125 6.933594 18.035156 6.933594 Z M 25.960938 12.007812 L 23.597656 9.644531 C 23.484375 9.527344 23.328125 9.464844 23.171875 9.464844 C 23.011719 9.464844 22.855469 9.527344 22.746094 9.644531 C 22.628906 9.761719 22.566406 9.910156 22.566406 10.070312 C 22.566406 10.234375 22.628906 10.386719 22.746094 10.5 L 25.191406 12.945312 L 11.445312 12.945312 C 11.109375 12.945312 10.835938 13.21875 10.835938 13.554688 C 10.835938 13.886719 11.109375 14.160156 11.445312 14.160156 L 25.191406 14.160156 L 22.746094 16.605469 C 22.628906 16.722656 22.566406 16.871094 22.566406 17.03125 C 22.566406 17.195312 22.628906 17.351562 22.746094 17.460938 C 22.859375 17.578125 23.011719 17.640625 23.171875 17.640625 C 23.328125 17.640625 23.488281 17.578125 23.597656 17.460938 L 25.960938 15.097656 C 26.371094 14.6875 26.597656 14.136719 26.597656 13.554688 C 26.597656 12.96875 26.378906 12.417969 25.960938 12.007812 Z M 25.960938 12.007812 "/>
</svg>
