<svg
  xmlns="http://www.w3.org/2000/svg"
  width="27px" height="27px" viewBox="0 0 27 27">

  <path d="M 22.523438 9.191406 C 22.523438 10.363281 22.0625 11.890625 21.132812 13.726562 C 20.257812 15.40625 19.269531 17.042969 18.171875 18.582031 C 17.046875 20.195312 15.945312 21.605469 15.222656 22.496094 C 15.15625 22.582031 15.085938 22.679688 15.015625 22.75 L 17.074219 22.75 C 17.363281 22.75 17.585938 22.988281 17.585938 23.273438 C 17.585938 23.554688 17.351562 23.792969 17.074219 23.792969 L 9.914062 23.792969 C 9.636719 23.792969 9.398438 23.554688 9.398438 23.273438 C 9.398438 22.988281 9.636719 22.75 9.914062 22.75 L 11.96875 22.75 L 11.761719 22.496094 C 11.023438 21.578125 9.914062 20.152344 8.816406 18.582031 C 7.714844 17.042969 6.714844 15.421875 5.851562 13.738281 C 4.9375 11.902344 4.464844 10.378906 4.464844 9.207031 C 4.464844 7.976562 4.699219 6.777344 5.171875 5.632812 C 7.105469 0.972656 12.414062 -1.214844 17.003906 0.75 C 17.171875 0.820312 17.296875 0.988281 17.324219 1.171875 C 17.351562 1.355469 17.269531 1.539062 17.113281 1.652344 C 16.976562 1.765625 16.765625 1.792969 16.601562 1.722656 C 14.640625 0.859375 12.375 0.859375 10.386719 1.707031 C 7.425781 2.980469 5.503906 5.929688 5.503906 9.191406 C 5.503906 10.210938 5.9375 11.566406 6.785156 13.246094 C 7.632812 14.882812 8.605469 16.464844 9.664062 17.960938 C 10.746094 19.53125 11.84375 20.929688 12.570312 21.816406 C 12.804688 22.113281 13.027344 22.382812 13.207031 22.609375 C 13.277344 22.691406 13.390625 22.734375 13.5 22.734375 C 13.609375 22.734375 13.722656 22.691406 13.792969 22.609375 C 13.972656 22.382812 14.195312 22.113281 14.429688 21.816406 C 15.15625 20.914062 16.253906 19.515625 17.335938 17.960938 C 18.40625 16.464844 19.382812 14.871094 20.230469 13.246094 C 21.078125 11.566406 21.496094 10.195312 21.496094 9.191406 C 21.496094 7.019531 20.660156 4.984375 19.160156 3.445312 C 19.019531 3.316406 18.976562 3.121094 19.019531 2.9375 C 19.0625 2.753906 19.214844 2.613281 19.394531 2.554688 C 19.574219 2.511719 19.769531 2.570312 19.894531 2.695312 C 21.589844 4.433594 22.523438 6.734375 22.523438 9.191406 Z M 22.523438 9.191406 "/>

  <path d="M 17.28125 11.296875 C 16.417969 12.609375 14.972656 13.34375 13.484375 13.34375 C 12.902344 13.34375 12.316406 13.230469 11.75 12.992188 C 9.761719 12.144531 8.621094 9.984375 9.035156 7.824219 C 9.46875 5.675781 11.332031 4.109375 13.5 4.109375 C 13.640625 4.109375 13.765625 4.164062 13.863281 4.265625 C 13.957031 4.363281 14.015625 4.492188 14.015625 4.632812 C 14.015625 4.929688 13.777344 5.152344 13.5 5.152344 C 12.664062 5.152344 11.886719 5.449219 11.277344 5.972656 C 10.664062 6.480469 10.21875 7.203125 10.050781 8.035156 C 9.730469 9.6875 10.609375 11.367188 12.152344 12.015625 C 13.695312 12.667969 15.488281 12.117188 16.417969 10.703125 C 17.351562 9.292969 17.171875 7.398438 15.988281 6.199219 C 15.851562 6.070312 15.808594 5.875 15.851562 5.691406 C 15.890625 5.507812 16.03125 5.367188 16.210938 5.324219 C 16.390625 5.28125 16.585938 5.324219 16.710938 5.464844 C 18.242188 7.019531 18.476562 9.460938 17.28125 11.296875 Z M 26.804688 26.265625 C 26.542969 26.71875 26.054688 26.984375 25.539062 26.984375 L 1.433594 26.984375 C 0.917969 26.984375 0.445312 26.703125 0.179688 26.265625 C -0.0703125 25.84375 -0.0703125 25.304688 0.167969 24.867188 L 2.917969 19.867188 C 3.183594 19.402344 3.671875 19.121094 4.199219 19.121094 L 7.398438 19.121094 C 7.675781 19.121094 7.910156 19.359375 7.910156 19.644531 C 7.910156 19.9375 7.675781 20.164062 7.398438 20.164062 L 4.199219 20.164062 C 4.046875 20.164062 3.894531 20.25 3.824219 20.378906 L 1.085938 25.375 C 1.015625 25.488281 1.027344 25.617188 1.085938 25.730469 C 1.167969 25.855469 1.308594 25.941406 1.460938 25.941406 L 25.554688 25.941406 C 25.707031 25.941406 25.847656 25.871094 25.929688 25.730469 C 26 25.617188 26 25.488281 25.929688 25.375 L 23.175781 20.378906 C 23.105469 20.25 22.953125 20.164062 22.800781 20.164062 L 19.601562 20.164062 C 19.3125 20.164062 19.089844 19.925781 19.089844 19.644531 C 19.089844 19.359375 19.324219 19.121094 19.601562 19.121094 L 22.800781 19.121094 C 23.328125 19.121094 23.816406 19.402344 24.066406 19.867188 L 26.820312 24.867188 C 27.070312 25.292969 27.054688 25.828125 26.804688 26.265625 Z M 26.804688 26.265625 "/>

  <path d="M 22.523438 21.917969 C 22.523438 22.199219 22.285156 22.4375 22.007812 22.4375 L 20.367188 22.4375 L 19.160156 23.257812 C 19.074219 23.316406 18.976562 23.34375 18.867188 23.34375 C 18.699219 23.34375 18.53125 23.257812 18.4375 23.117188 C 18.367188 23.003906 18.324219 22.863281 18.351562 22.722656 C 18.378906 22.582031 18.464844 22.46875 18.574219 22.382812 L 19.921875 21.480469 C 20.007812 21.421875 20.105469 21.394531 20.214844 21.394531 L 22.007812 21.394531 C 22.285156 21.378906 22.523438 21.621094 22.523438 21.917969 Z M 23.871094 24.640625 C 23.871094 24.925781 23.636719 25.164062 23.355469 25.164062 L 19.769531 25.164062 C 19.492188 25.164062 19.257812 24.925781 19.257812 24.640625 C 19.257812 24.34375 19.492188 24.121094 19.769531 24.121094 L 23.355469 24.121094 C 23.636719 24.121094 23.871094 24.34375 23.871094 24.640625 Z M 8.621094 22.976562 C 8.550781 23.203125 8.355469 23.34375 8.121094 23.34375 C 8.023438 23.34375 7.910156 23.316406 7.828125 23.257812 L 6.617188 22.4375 L 4.992188 22.4375 C 4.714844 22.4375 4.476562 22.199219 4.476562 21.917969 C 4.476562 21.632812 4.714844 21.394531 4.992188 21.394531 L 6.785156 21.394531 C 6.882812 21.394531 6.992188 21.421875 7.078125 21.480469 L 8.425781 22.398438 C 8.605469 22.507812 8.691406 22.75 8.621094 22.976562 Z M 7.742188 24.640625 C 7.742188 24.925781 7.507812 25.164062 7.230469 25.164062 L 3.65625 25.164062 C 3.378906 25.164062 3.140625 24.925781 3.140625 24.640625 C 3.140625 24.34375 3.378906 24.121094 3.65625 24.121094 L 7.230469 24.121094 C 7.523438 24.121094 7.742188 24.34375 7.742188 24.640625 Z M 7.742188 24.640625 "/>
</svg>
