<svg
  xmlns="http://www.w3.org/2000/svg"
  width="47px" height="29px" viewBox="0 0 47 29">

  <path d="M 0.152344 3.050781 C 0.152344 1.375 1.515625 0 3.183594 0 L 43.816406 0 C 45.484375 0 46.847656 1.375 46.847656 3.050781 C 46.847656 4.730469 45.484375 6.105469 43.816406 6.105469 L 3.183594 6.105469 C 1.515625 6.105469 0.152344 4.730469 0.152344 3.050781 Z M 43.816406 11.449219 L 3.183594 11.449219 C 1.515625 11.449219 0.152344 12.820312 0.152344 14.5 C 0.152344 16.179688 1.515625 17.550781 3.183594 17.550781 L 43.816406 17.550781 C 45.484375 17.550781 46.847656 16.179688 46.847656 14.5 C 46.847656 12.820312 45.484375 11.449219 43.816406 11.449219 Z M 43.816406 22.894531 L 3.183594 22.894531 C 1.515625 22.894531 0.152344 24.269531 0.152344 25.949219 C 0.152344 27.625 1.515625 29 3.183594 29 L 43.816406 29 C 45.484375 29 46.847656 27.625 46.847656 25.949219 C 46.847656 24.269531 45.484375 22.894531 43.816406 22.894531 Z M 43.816406 22.894531 "/>
</svg>

