<svg
  xmlns="http://www.w3.org/2000/svg"
  width="36px" height="20px" viewBox="0 0 36 20">

  <path style=" stroke:none;fill-rule:nonzero;fill:rgb(0%,0%,0%);fill-opacity:1;" d="M 36 0.753906 C 36 0.773438 36 0.796875 36 0.804688 C 35.980469 0.847656 35.96875 0.886719 35.949219 0.929688 C 35.835938 1.261719 35.722656 1.59375 35.605469 1.925781 C 35.214844 2.992188 34.789062 4.046875 34.285156 5.074219 C 33.921875 5.800781 33.488281 6.484375 32.929688 7.082031 C 32.578125 7.46875 32.234375 7.859375 31.90625 8.253906 C 31.53125 8.699219 31.171875 9.15625 30.871094 9.652344 C 30.664062 9.996094 30.488281 10.355469 30.375 10.75 C 30.21875 11.269531 30.269531 11.765625 30.558594 12.234375 C 30.652344 12.378906 30.746094 12.523438 30.851562 12.65625 C 31.109375 13 31.417969 13.300781 31.738281 13.589844 C 32.027344 13.859375 32.328125 14.117188 32.628906 14.378906 C 33.167969 14.832031 33.652344 15.328125 34.160156 15.816406 C 34.511719 16.148438 34.839844 16.5 35.140625 16.875 C 35.378906 17.175781 35.585938 17.484375 35.730469 17.835938 C 35.84375 18.128906 35.90625 18.425781 35.886719 18.738281 C 35.875 18.894531 35.84375 19.039062 35.792969 19.171875 C 35.667969 19.484375 35.429688 19.671875 35.121094 19.785156 C 34.882812 19.878906 34.625 19.917969 34.375 19.929688 C 34.066406 19.941406 33.753906 19.949219 33.445312 19.949219 C 33.03125 19.949219 32.628906 19.917969 32.214844 19.917969 C 31.707031 19.917969 31.203125 19.941406 30.695312 19.960938 C 30.664062 19.960938 30.632812 19.972656 30.601562 19.972656 C 30.199219 19.972656 29.792969 19.972656 29.382812 19.972656 C 29.351562 19.960938 29.308594 19.960938 29.277344 19.949219 C 29.039062 19.929688 28.792969 19.910156 28.554688 19.878906 C 27.871094 19.773438 27.261719 19.515625 26.703125 19.113281 C 26.332031 18.84375 26.019531 18.511719 25.71875 18.160156 C 25.277344 17.621094 24.832031 17.082031 24.386719 16.550781 C 24.292969 16.4375 24.199219 16.335938 24.097656 16.230469 C 23.890625 16.003906 23.664062 15.804688 23.394531 15.652344 C 23.105469 15.484375 22.792969 15.421875 22.460938 15.476562 C 22.152344 15.527344 21.894531 15.671875 21.707031 15.929688 C 21.605469 16.074219 21.53125 16.242188 21.46875 16.40625 C 21.367188 16.707031 21.316406 17.019531 21.273438 17.320312 C 21.210938 17.734375 21.167969 18.160156 21.109375 18.574219 C 21.066406 18.894531 20.992188 19.203125 20.890625 19.503906 C 20.871094 19.566406 20.839844 19.597656 20.777344 19.597656 C 20.15625 19.691406 19.527344 19.765625 18.894531 19.796875 C 18.160156 19.835938 17.4375 19.828125 16.703125 19.765625 C 16.175781 19.722656 15.648438 19.648438 15.128906 19.535156 C 13.941406 19.296875 12.8125 18.882812 11.75 18.292969 C 10.640625 17.683594 9.660156 16.90625 8.769531 16.023438 C 7.984375 15.246094 7.289062 14.398438 6.640625 13.507812 C 5.914062 12.511719 5.265625 11.476562 4.621094 10.417969 C 4.003906 9.40625 3.421875 8.367188 2.90625 7.300781 C 2.246094 5.933594 1.625 4.546875 1.035156 3.148438 C 0.703125 2.359375 0.371094 1.550781 0.0429688 0.742188 C 0.0195312 0.710938 0.0117188 0.679688 0 0.640625 C 2.265625 0.628906 4.519531 0.621094 6.773438 0.621094 C 6.804688 0.671875 6.824219 0.710938 6.847656 0.742188 C 7.644531 2.183594 8.4375 3.632812 9.234375 5.074219 C 9.617188 5.769531 10.019531 6.429688 10.488281 7.074219 C 10.828125 7.550781 11.167969 8.027344 11.511719 8.492188 C 11.644531 8.679688 11.78125 8.855469 11.925781 9.03125 C 12.058594 9.1875 12.203125 9.34375 12.359375 9.464844 C 12.484375 9.570312 12.628906 9.652344 12.78125 9.703125 C 13.070312 9.796875 13.332031 9.734375 13.539062 9.507812 C 13.640625 9.394531 13.714844 9.269531 13.785156 9.136719 C 13.898438 8.90625 13.980469 8.667969 14.042969 8.429688 C 14.230469 7.726562 14.3125 7 14.332031 6.265625 C 14.34375 5.859375 14.332031 5.457031 14.324219 5.054688 C 14.3125 4.617188 14.25 4.171875 14.167969 3.746094 C 14.105469 3.4375 14.035156 3.136719 13.910156 2.847656 C 13.796875 2.578125 13.621094 2.347656 13.382812 2.171875 C 13.207031 2.039062 13.011719 1.933594 12.804688 1.863281 C 12.554688 1.769531 12.296875 1.6875 12.046875 1.601562 C 12.027344 1.59375 11.996094 1.582031 11.976562 1.574219 C 12.015625 1.375 12.121094 1.230469 12.253906 1.105469 C 12.410156 0.972656 12.574219 0.867188 12.761719 0.773438 C 13.070312 0.621094 13.394531 0.515625 13.734375 0.421875 C 14.675781 0.171875 15.636719 0.0703125 16.597656 0.0390625 C 17.117188 0.0195312 17.621094 0.0273438 18.140625 0.0703125 C 18.59375 0.101562 19.050781 0.164062 19.496094 0.257812 C 19.792969 0.328125 20.09375 0.410156 20.375 0.558594 C 20.558594 0.648438 20.714844 0.773438 20.839844 0.941406 C 21.035156 1.199219 21.148438 1.488281 21.230469 1.800781 C 21.324219 2.203125 21.34375 2.617188 21.34375 3.023438 C 21.335938 3.613281 21.261719 4.195312 21.199219 4.773438 C 21.140625 5.3125 21.078125 5.851562 21.015625 6.390625 C 20.964844 6.90625 20.941406 7.414062 20.992188 7.933594 C 21.023438 8.253906 21.085938 8.566406 21.210938 8.867188 C 21.355469 9.207031 21.5625 9.488281 21.863281 9.703125 C 21.914062 9.746094 21.945312 9.746094 22.007812 9.714844 C 22.171875 9.613281 22.339844 9.507812 22.503906 9.394531 C 22.988281 9.050781 23.402344 8.636719 23.796875 8.191406 C 24.40625 7.507812 24.933594 6.773438 25.410156 5.996094 C 26.445312 4.359375 27.292969 2.617188 28.027344 0.835938 C 28.035156 0.804688 28.058594 0.773438 28.066406 0.734375 C 28.191406 0.734375 28.316406 0.734375 28.441406 0.734375 C 29.257812 0.734375 30.074219 0.742188 30.902344 0.753906 C 31.851562 0.765625 32.804688 0.765625 33.753906 0.773438 C 34.449219 0.773438 35.152344 0.785156 35.84375 0.785156 C 35.898438 0.765625 35.949219 0.765625 36 0.753906 Z M 36 0.753906 "/>
</svg>
