<?xml version="1.0" encoding="utf-8"?>
<!-- Generator: Adobe Illustrator 22.1.0, SVG Export Plug-In . SVG Version: 6.00 Build 0)  -->
<svg version="1.1" id="Layer_1" xmlns="http://www.w3.org/2000/svg" xmlns:xlink="http://www.w3.org/1999/xlink" x="0px" y="0px"
	 viewBox="0 0 78.7 81.2" style="enable-background:new 0 0 78.7 81.2;" xml:space="preserve">
<style type="text/css">
	.st0{fill-rule:evenodd;clip-rule:evenodd;fill:#FEFEFE;}
	.st1{fill:#FFFFFF;}
	.st2{fill:#005A9B;}
</style>
<g>
	<path class="st0" d="M9.3,6.9c8.3-1.1,16.7-2,25.1-3.1c8.3-1,16.7-2.2,25-3.7c6.3-1.1,13.7,3.2,15.3,10.3c2.2,9.4,3.3,19,3.7,28.6
		c0.4,9.6,0.1,19.3-0.8,28.9c-0.7,7.2-7,13.1-13.4,13.1c-8.6,0-17.2,0-25.8,0.1c-8.6,0-17.2,0.1-25.8,0.1C6.3,81.2,2,76.2,2.7,69.9
		c0.8-8.4,1-16.8,0.5-25.2S1.6,28,0.2,19.7C-0.9,13.6,3.1,7.8,9.3,6.9L9.3,6.9z"/>
	<path class="st1" d="M11.2,11.3c8.2-1,16.3-1.9,24.5-2.9c8.2-0.9,16.4-2.1,24.5-3.3c4.3-0.8,9.2,2.3,10.2,7.1
		c1.9,9,3.1,18.2,3.5,27.4c0.4,9.2,0,18.4-0.7,27.7c-0.4,4.9-4.6,8.9-9,8.9c-8.3,0.1-16.6,0.2-24.9,0.3c-8.3,0.1-16.6,0.1-24.9,0.2
		c-4.4,0.1-7.5-3.4-7-7.8c0.6-8.2,0.9-16.4,0.5-24.6C7.3,36.1,6.2,28,4.9,20C4.1,15.8,6.9,11.8,11.2,11.3L11.2,11.3z"/>
	<path class="st2" d="M12.2,11.1c0.9,3.9,1.7,7.8,2.3,11.7c0.7,3.9,1.1,7.9,1.6,11.8c-3,0.3-6,0.5-9,0.8C7.6,41.3,7.9,47.2,8,53.1
		c3-0.2,6-0.3,9-0.5c-0.1,4-0.1,8-0.4,12c-0.3,4-0.8,8-1.3,12c6-0.1,11.9-0.1,17.9-0.2c0.5-4.1,1.1-8.2,1.3-12.3
		c0.3-4.1,0.4-8.3,0.4-12.4c6.5-0.3,13-0.6,19.5-1c6.5-0.3,13-0.8,19.5-1.3c0-6.6-0.3-13.3-0.8-19.9c-6.5,0.8-13,1.5-19.5,2.1
		c-6.5,0.6-13.1,1.1-19.6,1.6c-0.5-4.1-1-8.2-1.7-12.2c-0.7-4-1.6-8-2.6-12C23.9,9.8,18.1,10.5,12.2,11.1L12.2,11.1z"/>
</g>
</svg>
