<?xml version="1.0" encoding="utf-8"?>
<!-- Generator: Adobe Illustrator 22.1.0, SVG Export Plug-In . SVG Version: 6.00 Build 0)  -->
<svg version="1.1" id="Режим_изоляции"
	 xmlns="http://www.w3.org/2000/svg" xmlns:xlink="http://www.w3.org/1999/xlink" x="0px" y="0px" viewBox="0 0 78.7 81.2"
	 style="enable-background:new 0 0 78.7 81.2;" xml:space="preserve">
<style type="text/css">
	.st0{fill-rule:evenodd;clip-rule:evenodd;fill:#FEFEFE;}
	.st1{fill:#00498E;}
	.st2{fill:#FFDF25;}
</style>
<g>
	<path class="st0" d="M9.3,6.9c8.3-1.1,16.7-2.1,25.1-3.1c8.3-1.1,16.7-2.2,25-3.7c6.3-1.1,13.7,3.2,15.3,10.3
		c2.2,9.4,3.3,19,3.7,28.6c0.4,9.7,0,19.3-0.8,28.9c-0.7,7.2-7,13.1-13.4,13.1c-8.6,0-17.2,0-25.8,0.1c-8.6,0-17.2,0-25.7,0.1
		C6.3,81.2,2,76.1,2.7,69.8c0.8-8.4,1-16.8,0.5-25.2c-0.5-8.3-1.6-16.7-3-24.9C-0.9,13.6,3.1,7.8,9.3,6.9L9.3,6.9z"/>
	<path class="st1" d="M60.7,5c-8.3,1.3-16.6,2.4-24.9,3.4c-8.3,1-16.7,1.9-25,2.9c-4.1,0.7-6.7,4.5-5.9,8.6
		C6.2,28,7.3,36.1,7.8,44.3c0.5,8.2,0.1,16.4-0.5,24.6c-0.5,4.2,2.4,7.6,6.6,7.8c8.4-0.1,16.9-0.1,25.3-0.2
		c8.5-0.1,16.9-0.2,25.4-0.3c4.3-0.3,8.2-4.2,8.6-8.9c0.8-9.2,1.1-18.4,0.7-27.7c-0.4-9.2-1.6-18.3-3.5-27.3
		C69.5,7.6,64.9,4.5,60.7,5L60.7,5z"/>
	<path class="st2" d="M73.5,32.3c-6.6,0.8-13.2,1.5-19.8,2c-6.6,0.6-13.2,1.1-19.8,1.5c-0.5-4.5-1-9-1.7-13.4
		c-0.7-4.4-1.7-8.9-2.8-13.2c-4.3,0.5-8.7,1-13,1.5c1,4.3,1.9,8.6,2.6,13c0.7,4.3,1.2,8.7,1.7,13.1c-4.4,0.3-8.8,0.7-13.2,1.1
		c0.3,4.3,0.6,8.6,0.7,12.9c4.4-0.3,8.8-0.5,13.2-0.8c0,4.4,0,8.9-0.3,13.3c-0.3,4.4-0.8,8.8-1.4,13.3c4.4-0.1,8.8-0.1,13.2-0.1
		c0.6-4.5,1.1-9,1.4-13.5c0.3-4.5,0.3-9.1,0.3-13.6c6.6-0.3,13.2-0.7,19.8-1.1c6.6-0.4,13.2-0.9,19.8-1.4C74,42,73.8,37.1,73.5,32.3
		L73.5,32.3z"/>
</g>
</svg>
