<?xml version="1.0" encoding="utf-8"?>
<!-- Generator: Adobe Illustrator 22.1.0, SVG Export Plug-In . SVG Version: 6.00 Build 0)  -->
<svg version="1.1" id="Layer_1" xmlns="http://www.w3.org/2000/svg" xmlns:xlink="http://www.w3.org/1999/xlink" x="0px" y="0px"
	 viewBox="0 0 78.7 81.2" style="enable-background:new 0 0 78.7 81.2;" xml:space="preserve">
<style type="text/css">
	.st0{fill-rule:evenodd;clip-rule:evenodd;fill:#FEFEFE;}
	.st1{fill:#FFFFFF;}
	.st2{fill:#E0383D;}
	.st3{fill:#00529E;}
</style>
<g>
	<path class="st0" d="M9.3,7c8.3-1.1,16.7-2.1,25-3.1c8.4-1.1,16.7-2.2,25-3.7C65.7-1,73.1,3.4,74.8,10.4c2.2,9.4,3.3,19,3.7,28.6
		c0.4,9.7,0.1,19.3-0.8,28.9c-0.7,7.2-7,13.1-13.4,13.1c-8.6,0-17.2,0-25.8,0c-8.6,0-17.2,0.1-25.8,0.1c-6.5,0-10.7-5.1-10.1-11.4
		c0.8-8.4,1-16.8,0.5-25.2c-0.5-8.3-1.6-16.7-3-24.9C-0.9,13.6,3.1,7.8,9.3,7L9.3,7z"/>
	<path class="st1" d="M73,27.4c-11,1.3-22,2.5-33,3.4c-11,0.9-22.1,1.7-33.1,2.7C6.3,29,5.6,24.5,4.9,20c-0.8-4.1,1.9-8,6.1-8.7
		c8.3-1,16.5-1.9,24.8-2.9C44,7.5,52.3,6.3,60.5,5c4.3-0.6,8.9,2.5,10,7.2C71.6,17.2,72.3,22.3,73,27.4L73,27.4z"/>
	<path class="st2" d="M14.1,76.7c8.4-0.1,16.8-0.2,25.2-0.3c8.4-0.1,16.8-0.2,25.2-0.3c4.3-0.2,8.3-4.2,8.7-8.9
		c0.5-5.1,0.7-10.3,0.9-15.5c-11,0.7-22,1.4-33,1.9c-11,0.5-22,1-33,1.5c-0.1,4.6-0.3,9.2-0.7,13.8C6.9,73.1,9.8,76.6,14.1,76.7
		L14.1,76.7z"/>
	<path class="st3" d="M74,51.7c-11,0.7-22,1.4-33,1.9c-11,0.5-22,1-33,1.5c0-3.6-0.1-7.2-0.3-10.8c-0.2-3.6-0.5-7.2-0.9-10.7
		c11-1,22-1.8,33.1-2.7c11-0.9,22-2,33-3.4c0.4,4.1,0.7,8.1,0.9,12.1C74.1,43.6,74.1,47.7,74,51.7L74,51.7z"/>
</g>
</svg>
