<?xml version="1.0" encoding="utf-8"?>
<!-- Generator: Adobe Illustrator 22.1.0, SVG Export Plug-In . SVG Version: 6.00 Build 0)  -->
<svg version="1.1" id="Layer_1" xmlns="http://www.w3.org/2000/svg" xmlns:xlink="http://www.w3.org/1999/xlink" x="0px" y="0px"
	 viewBox="0 0 78.7 81.2" style="enable-background:new 0 0 78.7 81.2;" xml:space="preserve">
<style type="text/css">
	.st0{fill-rule:evenodd;clip-rule:evenodd;fill:#FEFEFE;}
	.st1{fill:#FFDF25;}
	.st2{fill:#006953;}
	.st3{fill:#F4812C;}
	.st4{fill:#A9253D;}
</style>
<g>
	<path class="st0" d="M9.3,6.9c8.3-1.1,16.7-2.1,25-3.1c8.4-1.1,16.7-2.2,25-3.7c6.3-1.1,13.7,3.2,15.3,10.3
		c2.2,9.4,3.3,19,3.7,28.6c0.4,9.7,0.1,19.3-0.8,28.9c-0.7,7.2-7,13.1-13.4,13.1c-8.6,0-17.2,0-25.8,0.1c-8.6,0-17.2,0-25.8,0.1
		c-6.5,0-10.7-5.1-10.1-11.4c0.8-8.4,1-16.8,0.5-25.2c-0.5-8.3-1.6-16.7-3-24.9C-0.9,13.6,3.1,7.8,9.3,6.9L9.3,6.9z"/>
	<path class="st1" d="M60.5,5C52.2,6.3,44,7.5,35.8,8.4c-8.3,1-16.5,1.9-24.7,2.9c-4.2,0.7-6.9,4.5-6.1,8.7
		C6.2,28,7.3,36.1,7.8,44.3c0.4,8.2,0.1,16.4-0.5,24.6c-0.5,4.3,2.5,7.7,6.8,7.8c8.4-0.1,16.8-0.2,25.2-0.2
		c8.4-0.1,16.8-0.2,25.1-0.3c4.3-0.2,8.4-4.1,8.8-8.9c0.8-9.2,1.1-18.4,0.7-27.7c-0.4-9.2-1.6-18.3-3.5-27.3
		C69.5,7.5,64.7,4.4,60.5,5L60.5,5z"/>
	<path class="st2" d="M11.9,71.5c0.8-9.2,1.3-18.4,0.8-27.5c-0.5-9.1-1.9-18.2-3.5-27.2c-1.4,0.2-2.9,0.4-4.3,0.5
		c-0.2,0.9-0.2,1.8,0,2.7C6.2,28,7.3,36.1,7.8,44.3c0.4,8.2,0.1,16.4-0.5,24.6c-0.1,1,0,1.9,0.2,2.7C8.9,71.5,10.4,71.5,11.9,71.5
		L11.9,71.5z"/>
	<path class="st3" d="M11.9,71.5c0.8-9.2,1.3-18.4,0.8-27.5c-0.5-9.1-1.9-18.2-3.5-27.2c4.4-0.5,8.8-1,13.3-1.5
		c1.7,9.2,3.1,18.5,3.6,27.8c0.5,9.3-0.1,18.8-0.8,28.2C20.8,71.3,16.3,71.4,11.9,71.5L11.9,71.5z"/>
	<path class="st4" d="M29.2,71.1c0.8-9.4,1.3-18.9,0.8-28.3c-0.5-9.4-1.9-18.7-3.7-28c7.1-0.7,14.3-1.5,21.4-2.3
		c7.2-0.9,14.3-2,21.4-3.2c0.6,0.9,1,1.9,1.2,2.9c1.8,9,3.1,18.2,3.5,27.3c0.4,9.2-0.1,18.5-0.7,27.7c-0.1,1.1-0.4,2.1-0.8,3
		c-7.2,0.2-14.4,0.4-21.6,0.5C43.6,70.9,36.4,71,29.2,71.1L29.2,71.1z"/>
	<path class="st1" d="M62.4,37.2c1.6-0.6,4.3,0.1,6.4-0.9c1.6-0.8,3.4-0.2,4.9-0.7c0.3,6.7,0.4,13.5,0.2,20.2
		c-0.5-0.6-1.1-1.1-1.8-1.7c-0.4,1-1.1,1.5-0.6,2.7c0.4,0.9,1.2,0.5,1.3,0.1c0.4,2.1-2.2,2.9-1.5,5.7c0.2,1,0.1,1.5-0.4,2.6
		c-0.8,0-1.1-0.1-1.4-0.7c-0.3,0.6-0.3,0.9-1,0.9c-0.6,0-0.6-0.5-0.7-0.9c-0.2,0.5-0.3,0.8-0.9,0.9c-0.5,0-0.6-0.2-0.7-0.8
		c-0.4,0.7-0.8,0.9-1.3,0.9c0.1-1.7,1.1-2.6,2-2.5c1,0.1,1.4-0.3,1.7-1.1c0.2-0.8-0.1-1.6,0.2-3.1c0.4-3-2.8-5.1-2.2-8.7
		c-3.5,0.2-6,3.7-8.1,4.5c-0.5,1.1-0.9,2.1-1.1,2.6c-0.8,1.9,0.7,2.3,1.6,1.9c-0.3,1.5-1.2,2.4-2,2.6c-0.8,0.3-0.8,0.8-0.6,1.6
		c0.2,0.7,0.1,1.3-0.7,2.6c-1.3,0-1.3-0.3-1.4-0.6c-0.2,0.2-0.4,0.7-1,0.7c-0.7,0-0.7-0.1-0.9-0.7c-0.3,0.5-0.4,0.7-0.9,0.7
		c-0.6,0-0.6-0.1-0.7-0.7c-0.3,0.4-0.4,0.7-1.1,0.7c1-5.4,3-0.8,4.5-4.3c0.6-1.5,0-3.5-0.4-5.8c-0.9-0.5-1.7-1.1-2.3-1.8
		c-2.4,4.4-3.4,0.8-4.1,0c-0.8-0.9-1.1,0.1-1,0.7c-0.4-0.7-0.7-1.2-0.5-2.7c0.2-1.6-0.4-1.8-1.6-2c-1.2-0.1-1.3-2.3-1.3-4.3
		c-0.1-2,2.1-1.5,2.4-1.3c1.2,1.5,2.7,3.5,3.8,5c-0.9-4.1,0.6-8.8,3.2-11.2c0.9-0.8,1-1.7,0.5-2.1c-0.3-0.3-0.9,0.7-0.7,1.3
		c-1-0.6-0.7-1.5-1.2-1.9c0.1,0.4-0.1,1.2,0,1.6c-0.2-0.5-0.6-0.3-0.9-1.5c-0.5,0.6-1,0.8-1.5,0.7c0.6-0.4,0.3-1,0.5-1.2
		c-0.7,0.7-1.6,0.3-2,0.7c0.5-0.6,0.1-2.3,0.8-3.3c-0.3-0.2-0.6-0.5-0.7-0.8c-0.3-0.7-0.1-1.3,1-0.5c1.2,0.8,2.8,1.4,4.5,1.4
		c-0.7-1.1-1.5-1.6-1.7-2.9c-0.1,0.6-0.1,1.1,0.1,1.6c-0.3-0.6-0.8-0.3-1.4-1.5c0.2,0.5,0.1,0.9,0.3,1.3c-1.3-0.5-1.1-1.2-2.2-2.2
		c-1.3-1.3-0.9-1.8-1.3-2.5c-0.3-0.6-0.6-2.1,0.5-2.5c0.9-0.3,1.6,1.3,1.2,2c0.3-0.5,1.2-0.2,1.7-0.7c0.7-0.7,1.5,0.4,2.2-1.5
		c0.3-0.7-0.3-1.1-0.3-1.5c0.2,0.6,1.6-0.8,2.5,0.5c0.8,1.2,0.9-0.7,0.3-1.7c0.5,0.6,1.4-0.2,2.6,1.9c-0.1-0.6,0.4-1.2,0-2
		c0.9,0.3,1.7,0.7,2,1.3c0.5,0.7,1.5,0.3,1.7-1.3c0.4,1.5,0.1,2.5-0.5,3.9c1.1,1.1,1.2,3,1.1,4.1c0,0.1,0-0.1,0,0
		c0.3,0.9,0.1,2.7,0.3,3.3c0-0.2-0.2-0.3-0.4-0.5c0,1.6,0.8,2.2,0.6,3.4c0-0.3-0.3-0.7-0.8-1.1c0,1.2,0.5,2.5,0.9,2.5
		c-0.1,0-0.2,0.1-0.3,0.1C62.2,36.9,62.3,37,62.4,37.2L62.4,37.2z M73.2,29.6c-0.2,0.1-0.5,0.2-0.7,0.3c-2.7,1.2-5.3,1.5-7,0.4
		c-1.7-1.2-1.7,1.1-1.4,1.8c-1.6-1.4-1.3-2.9-0.9-3.9c-3.8-4.6-0.7-9,2.5-9.4c2.6-0.4,4.3,0.4,6.3,1.9c0.2,1.4,0.5,2.9,0.6,4.4
		c-0.6-0.3-1.3-1-1.6-1.9c0.1,1.7-0.6,2.5-1.6,2.4c1-2.4,0-4.1-1.5-4.5c1.5,2.1,0.6,4.6-1.1,4.8c1-2.2,0.1-4-1.2-4.7
		c-0.5-0.2-1.1-0.2-0.7,0.2c0.3,0.4,0.3,1.8-0.2,2.1c-0.2-1.6-1.7-1-1.9,0.3c-0.1,0.9,0.1,1.8,1.1,2.5c0.3-2.1,2.3-1.9,2.4-0.9
		c-1.5,0.6-1,2.4-0.3,3.2c-0.1-0.9,0.6-1.7,1-1.5c0,2.3,2.2,1.9,3.8,1.5c0.7-0.2,1.4-0.5,2.1-0.8C73.1,28.4,73.2,29,73.2,29.6
		L73.2,29.6z M73.4,64.9C73.2,64.9,73.1,65,73,65c-0.5,0-0.5-0.3-0.7-0.8c-0.3,0.6-0.7,0.9-1.2,0.9c0.2-2.1,1.7-2.7,2.5-3
		C73.5,63,73.4,63.9,73.4,64.9L73.4,64.9z"/>
	<path class="st1" d="M45,43.5c-0.4-7-0.8-13.1-1.2-17.5c-0.3-4.4-0.5-7.3,0-7.9c-2,1.9-2.5,4.8-2.4,9c0.1,4.2,0.7,9.7,1.1,16.6
		c0.2,0.2,0.4,0.5,0.6,0.7c0,0.4,0.1,6.3,0.1,6.6c-0.4,0.3-0.7-0.8-1.1,0.1c-0.3,0.7,0.5,1.3,1.1,0.7c0,0.6-0.4,1.3-0.7,1.5
		c0.7,0.7,0.8,2.6-0.1,3c0.2-0.3-0.5-1-0.8-0.3c-0.3,0.7,0.4,1.7,1.2,1.6c0,0.3-0.4,0.8-0.8,1c0.2,0.2,0.7,0.3,1.1,0.3
		c0,0.6,0,1.1,0.4,1.5c0.4-0.4,0.5-0.9,0.6-1.6c0.3,0,0.9-0.1,1.1-0.3c-0.4-0.2-0.7-0.7-0.8-1c0.8,0,1.6-1,1.3-1.7
		c-0.3-0.7-1,0-0.9,0.4c-0.8-0.4-0.7-2.2,0.1-3c-0.3-0.2-0.7-0.8-0.7-1.5c0.4-0.3,0.7,0.8,1.1-0.1c0.3-0.7-0.5-1.3-1.1-0.7
		c0-0.3-0.1-6.2-0.1-6.6C44.4,44,44.7,43.8,45,43.5L45,43.5z"/>
	<path class="st1" d="M43.7,45c3.3-0.2,2.9-3.3,1.7-3.7c-1.1-0.4-1.1,1.5-0.6,1.5c-0.1,0.7-0.8,0.7-1.2,0.8c-0.4,0-1.1,0-1.3-0.6
		c0.6-0.1,0.4-1.9-0.7-1.4C40.6,42.1,40.4,45.2,43.7,45L43.7,45z"/>
	<path class="st1" d="M44.7,46c0.1-0.4,0.7-0.6,0.9-1c0.2,0.8-0.1,0.9-0.3,1.3c-0.1,0.2-0.5,0.7-0.8,0.3
		C44.4,46.5,44.6,46.3,44.7,46L44.7,46z"/>
	<path class="st1" d="M43.7,45.2c0.8,0.3,1.1,0.4,1.1,1.1c-0.1,0.7-0.8,0.4-1.2,0.3c-0.4-0.2-1.1-0.2-1.1-1.1
		C42.5,44.9,43.1,45,43.7,45.2L43.7,45.2z"/>
	<path class="st1" d="M44.7,47.2c0.1-0.4,0.7-0.5,0.9-0.9c0.2,0.8-0.1,0.9-0.3,1.3c-0.1,0.2-0.5,0.7-0.8,0.3
		C44.4,47.7,44.7,47.5,44.7,47.2L44.7,47.2z"/>
	<path class="st1" d="M43.7,46.4c0.8,0.3,1.2,0.4,1.1,1.1c-0.1,0.7-0.8,0.4-1.2,0.3c-0.4-0.2-1.4-0.1-1.3-1.2
		C42.3,45.7,43.2,46.2,43.7,46.4L43.7,46.4z"/>
	<path class="st1" d="M44.8,48.4c0.1-0.4,0.7-0.5,0.8-0.9c0.2,0.8-0.1,0.9-0.3,1.3c-0.1,0.1-0.5,0.7-0.8,0.3
		C44.4,49,44.7,48.7,44.8,48.4L44.8,48.4z"/>
	<path class="st1" d="M43.7,47.7c0.8,0.3,1.1,0.4,1.1,1.1c-0.1,0.7-0.8,0.4-1.2,0.3c-0.4-0.2-1,0-1-1.1
		C42.6,47.4,43.2,47.4,43.7,47.7L43.7,47.7z"/>
	<path class="st1" d="M44.8,49.5c0.1-0.4,0.7-0.5,0.9-0.9c0.2,0.8-0.2,0.9-0.3,1.3c-0.1,0.2-0.5,0.7-0.8,0.3
		C44.4,50.1,44.7,49.9,44.8,49.5L44.8,49.5z"/>
	<path class="st1" d="M43.7,48.9c0.8,0.3,1.2,0.4,1.1,1.1c-0.1,0.7-0.8,0.4-1.2,0.3c-0.4-0.2-0.9-0.2-0.9-1
		C42.8,48.7,43.2,48.7,43.7,48.9L43.7,48.9z"/>
	<path class="st1" d="M28.6,18.9c0-0.7,0-1.4-0.5-1.5c-0.5-0.1-0.7-0.6-0.4-1.2c0.3-0.5,0.7-0.4,0.9,0.2c0.3,0.6,0.8,0.4,1.2,0.2
		c2.1-1.3,4.8,3.7,5.1,7.4C34.5,21.5,28.6,24.5,28.6,18.9L28.6,18.9z"/>
	<path class="st1" d="M31,66.9c0.1,0.7,0.1,1.3-0.3,1.6c-0.4,0.2-0.6,0.7-0.3,1.2c0.3,0.5,0.7,0.3,0.9-0.2c0.2-0.7,0.7-0.5,1.2-0.3
		c2.3,1,4.4-4.3,4.3-8C36.6,63.5,30.5,61.3,31,66.9L31,66.9z"/>
</g>
</svg>
