<svg xmlns="http://www.w3.org/2000/svg" viewBox="0 0 256 160">
  <path d="M50 0h63.8c8.9 0 14.4 7.3 12.4 16.2L96.5 143.7c-2.1 8.9-11 16.2-19.9 16.2H12.8c-8.9 0-14.4-7.3-12.4-16.2L30.1 16.2C32.2 7.3 41.1 0 50 0" fill="#e21836"/>
  <path d="M108.5 0h73.3c8.9 0 4.9 7.3 2.8 16.2L155 143.7c-2.1 8.9-1.4 16.2-10.4 16.2H71.3c-8.9 0-14.4-7.3-12.3-16.2L88.6 16.2C90.7 7.3 99.6 0 108.5 0" fill="#00447c"/>
  <path d="M178.9 0h63.8c8.9 0 14.5 7.3 12.4 16.2l-29.7 127.5c-2.1 8.9-11 16.2-19.9 16.2h-63.7c-8.9 0-14.5-7.3-12.4-16.2L159 16.2C161.1 7.3 170 0 178.9 0" fill="#007b84"/>
  <path d="M66.7 40.9c-6.6.1-8.5 0-9.1-.1-.2 1.1-4.7 21.5-4.7 21.6-1 4.1-1.6 7.1-4 9-1.3 1.1-2.9 1.6-4.7 1.6-2.9 0-4.6-1.4-4.9-4.2l-.1-.9s.9-5.5.9-5.6c0 0 4.6-18.6 5.5-21.1 0-.1.1-.2.1-.3-9 .1-10.6 0-10.8-.1-.1.2-.3 1.4-.3 1.4l-4.7 21-.4 1.8-.8 5.8c0 1.7.3 3.1 1 4.3 2.2 3.8 8.3 4.3 11.8 4.3 4.5 0 8.7-1 11.6-2.7 4.9-2.9 6.2-7.5 7.4-11.5L61 63s4.8-19.3 5.6-21.8c0-.2.1-.3.1-.3zM83 56.4c-1.2 0-3.3.3-5.2 1.2-.7.4-1.3.8-2 1.2l.6-2.2-.3-.4c-4 .8-4.9.9-8.6 1.4l-.3.2c-.4 3.6-.8 6.3-2.4 13.3-.6 2.6-1.2 5.2-1.9 7.8l.2.3c3.8-.2 5-.2 8.3-.1l.3-.3c.4-2.1.5-2.7 1.4-7 .4-2.1 1.3-6.6 1.8-8.2.8-.4 1.6-.8 2.4-.8 1.9 0 1.6 1.6 1.6 2.3-.1 1.1-.8 4.6-1.4 7.6l-.5 2c-.3 1.4-.7 2.8-1 4.3l.1.3c3.7-.2 4.9-.2 8.1-.1l.4-.3c.6-3.4.7-4.3 1.8-9.1l.5-2.2c1-4.4 1.5-6.6.7-8.4-.9-2.3-2.9-2.8-4.6-2.8zm18.2 4.6c-2 .4-3.3.6-4.5.8-1.3.2-2.5.4-4.4.6l-.2.1-.1.2c-.2 1.4-.3 2.7-.6 4.1-.2 1.5-.6 3.2-1.1 5.7-.4 1.9-.7 2.5-.9 3.2-.2.7-.5 1.3-1 3.2l.1.2.1.2c1.8-.1 3-.1 4.2-.2h4.4l.2-.1.2-.2c.3-1.7.3-2.1.5-2.9.2-.9.5-2.1 1.2-5.3.3-1.5.7-3 1.1-4.6.4-1.5.7-3.1 1.1-4.6l-.1-.2-.2-.2zm0-6.2c-1.8-1.1-5-.7-7.1.7-2.1 1.4-2.4 3.5-.6 4.6 1.8 1 5 .7 7.1-.8 2.1-1.4 2.4-3.4.6-4.5zm11 24.8c3.7 0 7.4-1 10.2-4 2.2-2.4 3.2-6 3.5-7.5 1.1-4.9.2-7.2-.9-8.6-1.7-2.1-4.6-2.8-7.7-2.8-1.8 0-6.2.2-9.6 3.3-2.5 2.3-3.6 5.4-4.3 8.3-.7 3-1.5 8.5 3.5 10.5 1.6.6 3.8.8 5.3.8zm-.3-11.1c.8-3.7 1.8-6.9 4.4-6.9 2 0 2.1 2.3 1.3 6.1-.2.8-.9 3.9-1.9 5.2-.7 1-1.5 1.6-2.4 1.6-.3 0-1.9 0-1.9-2.4-.1-1.1.2-2.3.5-3.6zm23.2 10.6l.3-.3c.4-2.1.5-2.7 1.4-7 .4-2.1 1.4-6.6 1.8-8.2.8-.4 1.6-.8 2.4-.8 1.8 0 1.6 1.6 1.5 2.3-.1 1.1-.7 4.6-1.4 7.6l-.4 2c-.3 1.4-.7 2.8-1 4.3l.1.3c3.8-.2 4.9-.2 8.1-.1l.4-.3c.6-3.4.7-4.3 1.8-9.1l.5-2.2c1-4.4 1.5-6.6.8-8.4-.8-2-2.8-2.5-4.5-2.5-1.2 0-3.3.3-5.2 1.2-.7.4-1.3.8-2 1.2l.6-2.2-.3-.4c-4 .8-4.9.9-8.6 1.4l-.3.2c-.4 3.6-.8 6.3-2.4 13.3-.6 2.6-1.2 5.2-1.9 7.8l.2.3c3.6-.5 4.8-.5 8.1-.4zm27.6.1c.2-1.2 1.6-8 1.7-8 0 0 1.2-5 1.3-5.2 0 0 .4-.5.8-.7h.6c5.2 0 11.1 0 15.7-3.4 3.1-2.3 5.3-5.8 6.3-10 .2-1 .4-2.2.4-3.5 0-1.6-.3-3.2-1.3-4.4-2.4-3.3-7-3.4-12.5-3.4H173c-6.9.1-9.7.1-10.9-.1-.1.5-.3 1.4-.3 1.4l-2.5 11.5s-5.9 24.5-6.2 25.6c6 .1 8.5.1 9.6.2zm4.6-20.4s2.6-11.5 2.6-11.4l.1-.6v-.4l1.1.1s5.4.5 5.6.5c2.1.8 3 3 2.4 5.8-.6 2.6-2.2 4.7-4.4 5.7-1.8.9-3.9 1-6.1 1h-1.4l.1-.7zm16.4 9.9c-.7 3-1.5 8.4 3.5 10.3 1.6.7 3 .9 4.5.8 1.5-.1 2.9-.8 4.2-1.9-.1.5-.2.9-.4 1.4l.2.3c3.6-.2 4.7-.2 8.6-.1l.4-.3c.6-3.3 1.1-6.6 2.6-12.9.7-3 1.4-6.1 2.2-9.1l-.1-.3c-4 .7-5.1.9-8.9 1.4l-.3.2c0 .3-.1.6-.1.9-.6-1-1.5-1.8-2.8-2.3-1.7-.7-5.7.2-9.2 3.3-2.6 2.3-3.7 5.3-4.4 8.3zm8.4.2c.9-3.7 1.8-6.8 4.4-6.8 1.6 0 2.5 1.5 2.3 4-.1.6-.3 1.3-.5 2.1-.3 1.1-.5 2.2-.8 3.3-.3.7-.6 1.4-.9 1.9-.7.9-2.2 1.5-3.1 1.5-.3 0-1.8 0-1.9-2.3 0-1.2.2-2.4.5-3.7zM236 56.8l-.3-.4c-4 .8-4.7.9-8.3 1.4l-.3.3v.2-.1c-2.7 6.2-2.6 4.9-4.8 9.8v-.6l-.6-10.7-.3-.4c-4.1.8-4.2.9-8.1 1.4l-.3.3c0 .1 0 .3-.1.4v.1c.5 2.4.4 1.9.8 5.8.2 1.9.5 3.8.7 5.7.4 3.1.6 4.7 1.1 9.5-2.6 4.3-3.2 5.9-5.7 9.6l-1.8 2.8c-.2.3-.4.5-.6.6-.3.1-.6.2-1.1.2h-1l-1.4 4.8 5 .1c2.9 0 4.7-1.4 5.7-3.2l3.1-5.3.3-.4c2.1-4.6 18-31.9 18-31.9zm-52.3 63.1h-2.1l7.8-25.7h2.6l.8-2.7.1 2.9c-.1 1.8 1.3 3.4 5.1 3.2h4.4l1.5-5h-1.6c-.9 0-1.4-.2-1.3-.7l-.1-3h-8.1c-2.6.1-10.4.3-12 .7-1.9.5-3.9 1.9-3.9 1.9l.8-2.7h-7.5l-1.6 5.3-7.9 26.1h-1.5l-1.5 4.9h15l-.5 1.6h7.4l.5-1.6h2.1l1.5-5.2zm-6.1-20.5c-1.2.3-3.5 1.3-3.5 1.3l2-6.6h6l-1.4 4.8c-.1 0-1.9.1-3.1.5zm.1 9.3s-1.9.2-3.1.5c-1.2.4-3.5 1.5-3.5 1.5l2.1-6.8h6l-1.5 4.8zm-3.4 11.2h-6l1.7-5.8h6l-1.7 5.8zm14.5-15.9h8.7l-1.2 4h-8.8l-1.3 4.4h7.7l-5.8 8.2c-.4.6-.8.8-1.2 1-.4.2-.9.4-1.6.4h-2.1l-1.5 4.8h5.6c2.9 0 4.6-1.3 5.9-3l4-5.5.9 5.5c.2 1 .9 1.6 1.4 1.9.6.3 1.1.8 1.9.8.9 0 1.5.1 1.9.1h2.7l1.6-5.4h-1.1c-.6 0-1.7-.1-1.9-.3-.2-.2-.2-.6-.3-1.2l-.9-5.6H200l1.6-1.9h8.8l1.3-4.4h-8.1l1.3-4h8.1l1.5-5h-24.1l-1.6 5.2zm-73.2 17l2-6.7h8.3l1.5-5h-8.3l1.3-4.1h8.1l1.5-4.8h-20.3l-1.5 4.8h4.6l-1.2 4.1H107l-1.5 5.1h4.6l-2.7 8.9c-.4 1.2.2 1.6.5 2.2.3.5.7.9 1.5 1.1.8.2 1.4.3 2.1.3h9.4l1.7-5.5-4.2.6c-.8-.1-3-.2-2.8-1zm1-32.2l-2.1 3.8c-.5.8-.9 1.3-1.2 1.6-.3.2-1 .3-1.9.3h-1.1l-1.5 4.9h3.7c1.8 0 3.1-.6 3.7-1 .7-.4.9-.2 1.4-.7l1.2-1.1h11.4l1.5-5.1h-8.3l1.5-2.8h-8.3zm16.8 32.3c-.2-.3-.1-.8.2-1.8l3.1-10.3h11.1c1.6 0 2.8 0 3.5-.1.8-.1 1.7-.4 2.7-.9 1-.5 1.5-1.1 1.9-1.8.5-.7 1.3-2.1 1.9-4.3l3.9-13-11.5.1s-3.5.5-5.1 1.1c-1.6.6-3.8 2.4-3.8 2.4l1-3.6h-7.1l-9.9 33c-.4 1.3-.6 2.2-.6 2.8 0 .6.8 1.2 1.3 1.6.6.4 1.5.4 2.3.4.9.1 2.1.1 3.9.1h5.5l1.7-5.7-4.9.5c-.6.1-1-.2-1.1-.5zm5.4-19h11.6l-.7 2.3c-.1.1-.4-.1-1.5 0H138l.8-2.3zm2.3-7.8h11.7l-.8 2.8s-5.5-.1-6.4.1c-3.9.7-6.2 2.8-6.2 2.8l1.7-5.7zm8.8 17.8c-.1.3-.2.6-.5.7-.2.2-.6.2-1.2.2h-1.7l.1-2.8h-6.9l-.3 13.8c0 1 .1 1.6.8 2 .7.6 3 .6 6 .6h4.3l1.6-5.2-3.8.2-1.3.1c-.2-.1-.3-.1-.5-.3-.2-.2-.4-.1-.4-1.1v-3.5l3.9-.2c2.1 0 3-.7 3.8-1.4.7-.6 1-1.4 1.3-2.3l.7-3.1h-5.4l-.5 2.3z" fill="#fefefe"/>
</svg>
