<svg xmlns="http://www.w3.org/2000/svg" viewBox="0 0 394.6 306">
  <path d="M85.2 289c0-5.7 3.7-10.4 9.8-10.4 5.8 0 9.8 4.5 9.8 10.4s-3.9 10.4-9.8 10.4c-6 0-9.8-4.7-9.8-10.4m26.3 0v-16.2h-7v3.9c-2.3-2.9-5.6-4.7-10.2-4.7-9.1 0-16.2 7.1-16.2 17s7.1 17 16.2 17c4.6 0 8-1.8 10.2-4.7v3.9h7V289zm237.8 0c0-5.7 3.7-10.4 9.8-10.4 5.8 0 9.8 4.5 9.8 10.4s-3.9 10.4-9.8 10.4c-6 0-9.8-4.7-9.8-10.4m26.2 0v-29.2h-7v16.9c-2.2-2.9-5.6-4.7-10.2-4.7-9.1 0-16.2 7.1-16.2 17s7.1 17 16.2 17c4.6 0 8-1.8 10.2-4.7v3.9h7V289zm-176.7-10.7c4.5 0 7.5 2.8 8.2 7.9h-16.8c.8-4.7 3.6-7.9 8.6-7.9m.2-6.3c-9.5 0-16.1 6.9-16.1 17 0 10.3 6.9 17 16.6 17 4.9 0 9.3-1.2 13.3-4.5l-3.5-5.2c-2.7 2.2-6.2 3.4-9.4 3.4-4.5 0-8.7-2.1-9.7-7.9h24c.1-.9.1-1.8.1-2.7 0-10.2-6.3-17.1-15.3-17.1m85 17c0-5.7 3.7-10.4 9.8-10.4 5.8 0 9.7 4.5 9.7 10.4s-3.9 10.4-9.7 10.4c-6.1 0-9.8-4.7-9.8-10.4m26.2 0v-16.2h-7v3.9c-2.2-2.9-5.6-4.7-10.2-4.7-9.1 0-16.2 7.1-16.2 17s7.1 17 16.2 17c4.6 0 8-1.8 10.2-4.7v3.9h7V289zm-66 0c0 9.8 6.8 17 17.3 17 4.9 0 8.1-1.1 11.7-3.9l-3.4-5.7c-2.7 1.9-5.4 2.9-8.5 2.9-5.6-.1-9.8-4.1-9.8-10.4 0-6.2 4.1-10.3 9.8-10.4 3 0 5.8 1 8.5 2.9l3.4-5.7c-3.5-2.8-6.8-3.9-11.7-3.9-10.4.2-17.3 7.4-17.3 17.2m90.8-17c-4.1 0-6.7 1.9-8.5 4.7v-3.9h-7v32.4h7V287c0-5.3 2.3-8.3 6.9-8.3 1.4 0 2.9.2 4.4.8l2.2-6.6c-1.6-.6-3.6-.9-5-.9m-188.7 3.4c-3.4-2.2-8.1-3.4-13.2-3.4-8.2 0-13.5 3.9-13.5 10.3 0 5.3 3.9 8.5 11.2 9.6l3.3.5c3.9.6 5.7 1.6 5.7 3.4 0 2.5-2.6 3.9-7.4 3.9-4.9 0-8.4-1.6-10.8-3.4l-3.3 5.5c3.9 2.9 8.7 4.2 14 4.2 9.3 0 14.8-4.4 14.8-10.6 0-5.7-4.3-8.7-11.3-9.7l-3.3-.5c-3.1-.4-5.5-1-5.5-3.2 0-2.4 2.3-3.8 6.2-3.8 4.1 0 8.1 1.5 10.1 2.8l3-5.6zm90.8-3.4c-4.1 0-6.7 1.9-8.6 4.7v-3.9h-7v32.4h7V287c0-5.3 2.3-8.3 6.9-8.3 1.4 0 2.9.2 4.4.8l2.2-6.6c-1.4-.6-3.5-.9-4.9-.9m-60.1.8h-11.5V263h-7.1v9.8h-6.6v6.4h6.6V294c0 7.5 2.9 12 11.3 12 3 0 6.6-.9 8.8-2.5l-2-6c-2.1 1.2-4.4 1.8-6.2 1.8-3.5 0-4.7-2.2-4.7-5.4v-14.6H177v-6.5zM71.8 305.2v-20.3c0-7.7-4.9-12.8-12.7-12.9-4.1-.1-8.4 1.2-11.4 5.7-2.2-3.6-5.8-5.7-10.7-5.7-3.5 0-6.8 1-9.5 4.8v-4h-7.1v32.4h7.1v-17.9c0-5.6 3.1-8.6 7.9-8.6 4.7 0 7 3.1 7 8.5v18h7.1v-17.9c0-5.6 3.3-8.6 7.9-8.6 4.8 0 7.1 3.1 7.1 8.5v18h7.3z" fill="#fff"/>
  <path fill="#eb611d" d="M143.9 26.1h106.7v191.7H143.9z"/>
  <path d="M150.7 121.9c0-38.9 18.2-73.5 46.6-95.9-20.8-16.3-46.9-26-75.4-26C54.6 0 0 54.6 0 121.9c0 67.4 54.6 121.9 121.9 121.9 28.4 0 54.6-9.7 75.3-26.1-28.3-22.2-46.5-56.8-46.5-95.8" fill="#e41322"/>
  <path d="M394.6 121.9c0 67.4-54.6 121.9-121.9 121.9-28.4 0-54.6-9.7-75.4-26.1 28.4-22.3 46.6-57 46.6-95.9 0-38.9-18.2-73.5-46.6-95.9C218 9.7 244.2 0 272.6 0c67.4 0 122 54.6 122 121.9" fill="#f59e21"/>
</svg>
